<svg width="430" height="402" viewBox="0 0 430 402" fill="none" xmlns="http://www.w3.org/2000/svg">
<circle cx="215" cy="187" r="215" fill="url(#paint0_radial_13448_182457)"/>
<defs>
<radialGradient id="paint0_radial_13448_182457" cx="0" cy="0" r="1" gradientUnits="userSpaceOnUse" gradientTransform="translate(215 187) rotate(90) scale(215)">
<stop stop-color="#D2FA57"/>
<stop offset="1" stop-color="#FDFDFD" stop-opacity="0"/>
</radialGradient>
</defs>
</svg>
