<svg width="246" height="120" viewBox="0 0 246 120" fill="none" xmlns="http://www.w3.org/2000/svg">
<rect x="0.5" y="0.5" width="245" height="119" rx="15.5" fill="#D2FA57"/>
<rect x="0.5" y="0.5" width="245" height="119" rx="15.5" stroke="black"/>
<rect x="62.5" y="40.5" width="39" height="39" rx="7.5" fill="white"/>
<rect x="62.5" y="40.5" width="39" height="39" rx="7.5" stroke="#595D62"/>
<path d="M72.368 70L78.224 49.552H85.744L91.568 70H86.512L82.176 52.848H81.808L77.424 70H72.368ZM77.344 65.184V61.296H86.56V65.184H77.344Z" fill="#252534"/>
<rect x="147" y="40.5" width="40" height="39" rx="7.5" fill="white"/>
<rect x="147" y="40.5" width="40" height="39" rx="7.5" stroke="#595D62"/>
<path d="M164.788 70.448C163.231 70.448 161.924 70.112 160.868 69.44C159.823 68.768 159.039 67.7973 158.516 66.528C157.993 65.248 157.732 63.712 157.732 61.92V58.32C157.732 55.312 158.543 53.024 160.164 51.456C161.796 49.888 164.175 49.104 167.3 49.104C168.26 49.104 169.151 49.1733 169.972 49.312C170.793 49.44 171.54 49.6107 172.212 49.824C172.895 50.0373 173.487 50.272 173.988 50.528L174.42 54.752C173.609 54.3893 172.703 54.0693 171.7 53.792C170.708 53.504 169.567 53.36 168.276 53.36C166.399 53.36 165.023 53.7867 164.148 54.64C163.273 55.4827 162.836 56.8053 162.836 58.608V61.968C162.836 63.312 163.151 64.352 163.78 65.088C164.42 65.824 165.412 66.192 166.756 66.192C167.353 66.192 167.871 66.1067 168.308 65.936C168.756 65.7547 169.124 65.52 169.412 65.232C169.711 64.944 169.945 64.624 170.116 64.272V60.368L170.772 61.84L166.836 61.856V58H174.916V66.592H170.02C169.86 67.328 169.588 67.9893 169.204 68.576C168.831 69.152 168.287 69.6107 167.572 69.952C166.868 70.2827 165.94 70.448 164.788 70.448ZM170.228 65.792H174.916V70H170.068L170.228 65.792Z" fill="#252534"/>
<path d="M102 58.5C101.167 58.5 100.5 59.1667 100.5 60C100.5 60.8333 101.167 61.5 102 61.5C102.833 61.5 103.5 60.8333 103.5 60C103.5 59.1667 102.833 58.5 102 58.5Z" fill="white"/>
<path d="M146.854 60.3536C147.049 60.1583 147.049 59.8417 146.854 59.6464L143.672 56.4645C143.476 56.2692 143.16 56.2692 142.964 56.4645C142.769 56.6597 142.769 56.9763 142.964 57.1716L145.793 60L142.964 62.8284C142.769 63.0237 142.769 63.3403 142.964 63.5355C143.16 63.7308 143.476 63.7308 143.672 63.5355L146.854 60.3536ZM101 60C101 59.4428 101.443 59 102 59V58C100.891 58 100 58.8905 100 60H101ZM102 59C102.557 59 103 59.4428 103 60H104C104 58.8905 103.109 58 102 58V59ZM103 60C103 60.5572 102.557 61 102 61V62C103.109 62 104 61.1095 104 60H103ZM102 61C101.443 61 101 60.5572 101 60H100C100 61.1095 100.891 62 102 62V61ZM103.5 60.5H146.5V59.5H103.5V60.5Z" fill="#111111"/>
</svg>
