<svg aria-hidden="true" style="position: absolute; width: 0; height: 0; overflow: hidden;" version="1.1" xmlns="http://www.w3.org/2000/svg" xmlns:xlink="http://www.w3.org/1999/xlink">
<defs>
<symbol id="icon-kycaid" viewBox="0 0 101 32">
<path d="M16.531 24.578h-4.828l-5.413-7.278-2.45 2.523v4.754h-3.84v-24.394h3.84v15.251l7.79-8.521h4.754l-7.351 8.009 7.497 9.655zM18.483 31.49l0.585-3.438c0.439 0.195 0.927 0.293 1.463 0.293 1.243 0 2.085-0.512 2.523-1.536l0.878-2.011-7.241-17.884h4.096l5.157 13.239 5.157-13.239h4.133l-8.521 20.846c-1.048 2.609-3.072 3.938-6.071 3.986-0.805 0-1.524-0.085-2.158-0.256zM45.69 25.016c-2.682 0-4.876-0.866-6.583-2.597-1.707-1.755-2.56-3.986-2.56-6.693 0-2.682 0.853-4.889 2.56-6.62 1.707-1.755 3.901-2.633 6.583-2.633 2.95 0 5.205 1.048 6.766 3.145l-2.523 2.341c-0.975-1.39-2.328-2.085-4.060-2.085-1.609 0-2.901 0.549-3.877 1.646-0.975 1.073-1.463 2.475-1.463 4.206s0.488 3.145 1.463 4.242c0.975 1.097 2.267 1.646 3.877 1.646 1.682 0 3.035-0.695 4.060-2.085l2.523 2.341c-1.56 2.097-3.816 3.145-6.766 3.145zM70.452 24.578h-3.84v-1.902c-1.365 1.56-3.267 2.341-5.705 2.341-0.020 0-0.044 0-0.068 0-1.609 0-3.082-0.581-4.221-1.544l0.010 0.008c-1.243-1.048-1.865-2.487-1.865-4.316 0-1.877 0.61-3.304 1.829-4.279 1.243-0.975 2.682-1.463 4.316-1.463 2.511 0 4.413 0.756 5.705 2.268v-2.633c0-1.024-0.378-1.829-1.134-2.414s-1.755-0.878-2.999-0.878c-1.975 0-3.718 0.744-5.23 2.231l-1.573-2.67c1.999-1.902 4.474-2.853 7.424-2.853 2.17 0 3.938 0.512 5.303 1.536s2.048 2.645 2.048 4.864v11.703zM62.406 22.383c1.926 0 3.328-0.61 4.206-1.829v-2.67c-0.878-1.219-2.28-1.829-4.206-1.829-1.097 0-1.999 0.293-2.706 0.878s-1.061 1.353-1.061 2.304 0.354 1.719 1.061 2.304c0.707 0.561 1.609 0.841 2.706 0.841zM77.332 4.755c-0.634 0-1.195-0.232-1.682-0.695-0.429-0.417-0.695-0.999-0.695-1.644 0-0.013 0-0.027 0-0.040l-0 0.002c0-0.658 0.232-1.219 0.695-1.682 0.488-0.463 1.048-0.695 1.682-0.695 0.658 0 1.219 0.232 1.682 0.695s0.695 1.024 0.695 1.682c0 0.658-0.232 1.219-0.695 1.682-0.417 0.429-0.999 0.695-1.644 0.695-0.013 0-0.027-0-0.040-0l0.002 0zM79.271 24.578h-3.84v-17.664h3.84v17.664zM100.528 24.578h-3.84v-2.414c-1.463 1.902-3.352 2.853-5.669 2.853s-4.206-0.829-5.669-2.487c-1.463-1.658-2.194-3.913-2.194-6.766 0-2.828 0.731-5.084 2.194-6.766s3.352-2.524 5.669-2.524 4.206 0.963 5.669 2.889v-9.18h3.84v24.394zM92.117 21.615c0.901 0 1.778-0.219 2.632-0.658s1.499-1 1.938-1.682v-7.022c-0.439-0.683-1.085-1.243-1.938-1.682-0.758-0.432-1.665-0.689-2.632-0.695h-0.002c-1.512 0-2.719 0.549-3.621 1.646s-1.353 2.511-1.353 4.242 0.451 3.145 1.353 4.242c0.902 1.073 2.109 1.609 3.621 1.609z"></path>
</symbol>
<symbol id="icon-arrow" viewBox="0 0 50 32">
<path d="M7.658 0.728l17.488 17.452 17.488-17.452 5.372 5.372-22.861 22.861-22.861-22.861 5.372-5.372z"></path>
</symbol>
<symbol id="icon-menu" viewBox="0 0 44 32">
<path d="M0 1.231h44.308v4.923h-44.308v-4.923zM0 13.538h44.308v4.923h-44.308v-4.923zM44.308 25.846h-44.308v4.923h44.308v-4.923z"></path>
</symbol>
<symbol id="icon-menu-close" viewBox="0 0 32 32">
<path d="M32.021 3.226l-3.226-3.226-12.784 12.784-12.784-12.784-3.226 3.226 12.784 12.784-12.784 12.784 3.226 3.226 12.784-12.784 12.784 12.784 3.226-3.226-12.784-12.784 12.784-12.784z"></path>
</symbol>
<symbol id="icon-video" viewBox="0 0 32 32">
<path d="M19.694 11.078v9.847h-12.309v-9.847h12.309zM20.924 8.616h-14.77c-0.677 0-1.231 0.554-1.231 1.231v12.309c0 0.677 0.554 1.231 1.231 1.231h14.77c0.677 0 1.231-0.554 1.231-1.231v-4.308l4.923 4.923v-13.539l-4.923 4.923v-4.308c0-0.677-0.554-1.231-1.231-1.231z"></path>
</symbol>
<symbol id="icon-liveness" viewBox="0 0 32 32">
<path d="M8.616 4.923c-2.025 0-3.693 1.668-3.693 3.693v2.462h2.462v-2.462c0-0.695 0.535-1.231 1.231-1.231h2.462v-2.462h-2.462zM20.924 4.923v2.462h2.462c0.695 0 1.231 0.535 1.231 1.231v2.462h2.462v-2.462c0-2.025-1.668-3.693-3.693-3.693h-2.462zM9.847 11.078v3.693h2.462v-3.693h-2.462zM14.77 11.078v4.923h-1.231v2.462h1.231c1.345 0 2.462-1.116 2.462-2.462v-4.923h-2.462zM19.694 11.078v3.693h2.462v-3.693h-2.462zM13.179 20.054l-1.74 1.74s0.48 0.465 1.243 0.847c0.762 0.382 1.883 0.745 3.32 0.745s2.558-0.364 3.32-0.745c0.763-0.382 1.243-0.847 1.243-0.847l-1.74-1.74s-0.135 0.15-0.603 0.385c-0.469 0.234-1.194 0.485-2.219 0.485s-1.75-0.251-2.219-0.486c-0.468-0.234-0.603-0.384-0.603-0.384zM4.923 20.924v2.462c0 2.025 1.668 3.693 3.693 3.693h2.462v-2.462h-2.462c-0.695 0-1.231-0.535-1.231-1.231v-2.462h-2.462zM24.617 20.924v2.462c0 0.695-0.535 1.231-1.231 1.231h-2.462v2.462h2.462c2.025 0 3.693-1.668 3.693-3.693v-2.462h-2.462z"></path>
</symbol>
<symbol id="icon-kyb" viewBox="0 0 32 32">
<path d="M25.848 9.847h-4.923v-2.462l-2.462-2.462h-4.923l-2.462 2.462v2.462h-4.923c-1.354 0-2.462 1.108-2.462 2.462v6.154c0 0.923 0.492 1.699 1.231 2.129v4.025c0 1.366 1.095 2.462 2.462 2.462h17.232c1.366 0 2.462-1.095 2.462-2.462v-4.037c0.726-0.431 1.231-1.219 1.231-2.117v-6.154c0-1.354-1.108-2.462-2.462-2.462zM13.539 7.385h4.923v2.462h-4.923v-2.462zM6.154 12.309h19.694v6.154h-6.154v-3.693h-7.385v3.693h-6.154v-6.154zM17.232 19.694h-2.462v-2.462h2.462v2.462zM24.617 24.617h-17.232v-3.693h4.923v1.231h7.385v-1.231h4.923v3.693z"></path>
</symbol>
<symbol id="icon-age" viewBox="0 0 32 32">
<path d="M6.122 21.853v-8.846h-0.114l-2.315 1.103 0.070-2.7 2.687-1.296h2.421v11.74h-2.748zM15.016 22.155c-0.849 0-1.564-0.080-2.148-0.239-0.583-0.16-1.055-0.387-1.414-0.679-0.337-0.283-0.602-0.64-0.77-1.048l-0.007-0.018c-0.151-0.396-0.239-0.854-0.239-1.332 0-0.016 0-0.032 0-0.049l-0 0.002v-0.219c0-0.533 0.086-0.99 0.256-1.369 0.169-0.384 0.428-0.701 0.753-0.933l0.007-0.005c0.352-0.243 0.769-0.422 1.217-0.51l0.021-0.003v-0.102c-0.443-0.073-0.839-0.227-1.189-0.448l0.013 0.008c-0.306-0.209-0.549-0.487-0.711-0.814l-0.006-0.012c-0.16-0.343-0.239-0.751-0.239-1.222v-0.222c0-0.954 0.353-1.707 1.061-2.259 0.713-0.558 1.843-0.836 3.393-0.836 1.567 0 2.704 0.278 3.411 0.837 0.714 0.55 1.070 1.303 1.070 2.259v0.22c0 0.478-0.082 0.887-0.247 1.231-0.165 0.337-0.406 0.609-0.725 0.817-0.318 0.209-0.714 0.356-1.184 0.441v0.102c0.501 0.111 0.919 0.283 1.255 0.523 0.335 0.239 0.588 0.548 0.759 0.928 0.171 0.373 0.256 0.83 0.256 1.369v0.22c0 0.484-0.074 0.931-0.222 1.342-0.146 0.404-0.394 0.758-0.741 1.065-0.348 0.3-0.82 0.533-1.415 0.698-0.595 0.172-1.333 0.257-2.217 0.257zM15.052 19.895c0.683 0 1.157-0.126 1.422-0.377 0.271-0.257 0.406-0.593 0.406-1.009v-0.092c0-0.434-0.149-0.775-0.451-1.020-0.3-0.245-0.791-0.422-1.476-0.533-0.635 0.111-1.092 0.298-1.369 0.561-0.271 0.257-0.406 0.587-0.406 0.992v0.091c0 0.423 0.138 0.759 0.415 1.011 0.283 0.251 0.768 0.377 1.457 0.377zM15.095 14.861c0.554-0.066 0.981-0.226 1.281-0.476 0.302-0.251 0.452-0.586 0.452-1.002v-0.074c0-0.398-0.142-0.714-0.425-0.945-0.277-0.234-0.739-0.35-1.387-0.35-0.63 0-1.087 0.117-1.37 0.35-0.277 0.226-0.416 0.535-0.416 0.928v0.082c0 0.276 0.065 0.517 0.194 0.726 0.135 0.201 0.34 0.367 0.611 0.495 0.277 0.129 0.63 0.218 1.060 0.267zM25.73 20.124h-2.282v-7.916h2.281v7.918zM20.86 17.287v-2.234h7.449v2.233h-7.449z"></path>
</symbol>
<symbol id="icon-funds-check" viewBox="0 0 32 32">
<path d="M24.617 18.463v-9.847c0-1.354-1.108-2.462-2.462-2.462h-17.232c-1.354 0-2.462 1.108-2.462 2.462v9.847c0 1.354 1.108 2.462 2.462 2.462h17.232c1.354 0 2.462-1.108 2.462-2.462zM22.155 18.463h-17.232v-9.847h17.232v9.847zM13.539 9.847c-2.043 0-3.693 1.649-3.693 3.693s1.649 3.693 3.693 3.693 3.693-1.649 3.693-3.693-1.649-3.693-3.693-3.693zM29.54 9.847v13.539c0 1.354-1.108 2.462-2.462 2.462h-20.924v-2.462h20.924v-13.539h2.462z"></path>
</symbol>
<symbol id="icon-id-verification" viewBox="0 0 32 32">
<path d="M12.486 22.173h-0.001zM13.539 25.848h4.923v-4.923h-4.923v4.923zM21.881 21.486c-0.678-2.339-2.827-4.869-5.88-4.869v4.923c0.052 0 0.241 0.025 0.516 0.274 0.273 0.25 0.514 0.627 0.635 1.044l4.729-1.372zM16.001 16.616c-3.053 0-5.202 2.531-5.88 4.87l4.728 1.371c0.122-0.419 0.363-0.795 0.636-1.044s0.464-0.274 0.516-0.274v-4.923zM15.693 10.77c0-0.17 0.138-0.308 0.308-0.308v0 4.923c2.549 0 4.616-2.067 4.616-4.616v0h-4.923zM16.001 10.462c0.17 0 0.308 0.138 0.308 0.308v0h-4.923c0 2.549 2.067 4.616 4.616 4.616v0-4.923zM16.309 10.77c0 0.17-0.138 0.308-0.308 0.308v0-4.923c-2.549 0-4.616 2.067-4.616 4.616v0h4.923zM16.001 11.078c-0.17 0-0.308-0.138-0.308-0.308v0h4.923c0-2.549-2.067-4.616-4.616-4.616v0 4.923zM18.463 25.848c1.002 0 1.984-0.41 2.672-1.166 0.546-0.592 0.881-1.386 0.881-2.258 0-0.334-0.049-0.657-0.141-0.962l0.006 0.024-4.729 1.372c-0.038-0.13-0.060-0.279-0.060-0.433 0-0.408 0.154-0.779 0.406-1.061l-0.001 0.001c0.283-0.313 0.644-0.442 0.966-0.442v4.923zM13.539 20.924c0.322 0 0.683 0.129 0.966 0.442 0.32 0.351 0.51 0.919 0.345 1.492l-4.729-1.371c-0.085 0.281-0.134 0.603-0.134 0.937 0 0.872 0.335 1.666 0.882 2.26l-0.002-0.002c0.689 0.756 1.67 1.166 2.672 1.166v-4.923z"></path>
<path stroke-linejoin="miter" stroke-linecap="round" stroke-miterlimit="4" stroke-width="2.4615" d="M4.923 8.616v-1.231c0-1.36 1.102-2.462 2.462-2.462v0h1.231M27.079 23.386v1.231c0 1.36-1.102 2.462-2.462 2.462v0h-1.231M27.079 8.616v-1.231c0-1.36-1.102-2.462-2.462-2.462v0h-1.231M4.923 23.386v1.231c0 1.36 1.102 2.462 2.462 2.462v0h1.231"></path>
</symbol>
<symbol id="icon-address" viewBox="0 0 32 32">
<path d="M16.001 3.693c-4.763 0-8.616 3.853-8.616 8.616 0 6.462 8.616 16.001 8.616 16.001s8.616-9.539 8.616-16.001c0-4.763-3.853-8.616-8.616-8.616zM9.847 12.309c0-3.397 2.757-6.154 6.154-6.154s6.154 2.757 6.154 6.154c0 3.545-3.545 8.85-6.154 12.161-2.56-3.286-6.154-8.653-6.154-12.161z"></path>
<path d="M16.001 15.386c1.699 0 3.077-1.378 3.077-3.077s-1.378-3.077-3.077-3.077v0c-1.699 0-3.077 1.378-3.077 3.077s1.378 3.077 3.077 3.077v0z"></path>
</symbol>
<symbol id="icon-database" viewBox="0 0 32 32">
<path d="M14.77 9.847h7.385v2.462h-7.385v-2.462zM14.77 14.77h7.385v2.462h-7.385v-2.462zM14.77 19.694h7.385v2.462h-7.385v-2.462zM9.847 9.847h2.462v2.462h-2.462v-2.462zM9.847 14.77h2.462v2.462h-2.462v-2.462zM9.847 19.694h2.462v2.462h-2.462v-2.462zM25.971 4.923h-19.94c-0.615 0-1.108 0.492-1.108 1.108v19.94c0 0.492 0.492 1.108 1.108 1.108h19.94c0.492 0 1.108-0.615 1.108-1.108v-19.94c0-0.615-0.615-1.108-1.108-1.108zM24.617 24.617h-17.232v-17.232h17.232v17.232z"></path>
</symbol>
<symbol id="icon-payment-fraud-prevention" viewBox="0 0 32 32">
<path d="M20.592 4.923h-9.182l-6.487 6.487v9.182l6.487 6.487h9.182l6.487-6.487v-9.182l-6.487-6.487zM24.617 19.571l-5.046 5.046h-7.139l-5.046-5.047v-7.139l5.046-5.046h7.139l5.047 5.046v7.139z"></path>
<path d="M16.001 22.155c0.68 0 1.231-0.551 1.231-1.231s-0.551-1.231-1.231-1.231v0c-0.68 0-1.231 0.551-1.231 1.231s0.551 1.231 1.231 1.231v0zM14.77 9.847h2.462v8.616h-2.462v-8.616z"></path>
</symbol>
<symbol id="icon-verification-software" viewBox="0 0 32 32">
<path fill="none" stroke="#06f" style="stroke: var(--color1, #06f)" stroke-linejoin="miter" stroke-linecap="butt" stroke-miterlimit="4" stroke-width="2.4615" d="M25.065 7.385h-18.128c-1.111 0-2.014 1.052-2.014 2.351v12.53c0 1.3 0.902 2.351 2.014 2.351h18.128c1.111 0 2.014-1.052 2.014-2.351v-12.53c0-1.3-0.902-2.351-2.014-2.351z"></path>
<path fill="#06f" style="fill: var(--color1, #06f)" d="M14.471 19.743l-1.1 0.55 1.1-0.551zM9.847 22.155h3.693v-2.462h-3.693v2.462zM15.57 19.19c-0.369-0.738-0.943-1.376-1.591-1.835-0.64-0.453-1.443-0.795-2.289-0.795v2.462c0.197 0 0.513 0.091 0.867 0.342 0.345 0.245 0.64 0.581 0.815 0.929l2.201-1.103zM11.689 16.561c-0.847 0-1.649 0.341-2.288 0.794-0.647 0.46-1.219 1.099-1.588 1.836l2.203 1.1c0.172-0.348 0.466-0.686 0.81-0.929 0.352-0.25 0.665-0.341 0.863-0.341v-2.462zM12.001 12.645c0 0.206-0.159 0.336-0.308 0.336v2.462c1.551 0 2.769-1.274 2.769-2.798h-2.462zM11.693 12.981c-0.149 0-0.308-0.13-0.308-0.336h-2.462c0 1.524 1.219 2.798 2.769 2.798v-2.462zM11.385 12.645c0-0.207 0.159-0.336 0.308-0.336v-2.462c-1.551 0-2.769 1.274-2.769 2.798h2.462zM11.693 12.309c0.149 0 0.308 0.129 0.308 0.336h2.462c0-1.524-1.219-2.798-2.769-2.798v2.462zM13.539 22.155c0.671 0 1.335-0.281 1.774-0.8 0.294-0.34 0.474-0.786 0.474-1.274 0-0.325-0.080-0.632-0.221-0.902l0.005 0.011-2.201 1.103c-0.029-0.061-0.045-0.132-0.045-0.207 0-0.027 0.002-0.053 0.006-0.079l-0 0.003c0.012-0.094 0.049-0.177 0.104-0.245l-0.001 0.001c0.022-0.028 0.049-0.050 0.080-0.066l0.001-0.001c0.007-0.003 0.015-0.006 0.023-0.006h0v2.462zM9.847 19.694c0.002 0 0.010 0 0.025 0.006 0.032 0.016 0.059 0.038 0.080 0.065l0 0c0.038 0.047 0.086 0.128 0.103 0.242 0.004 0.023 0.006 0.049 0.006 0.076 0 0.075-0.017 0.146-0.047 0.21l0.001-0.003-2.203-1.099c-0.135 0.259-0.215 0.565-0.215 0.89 0 0.489 0.18 0.936 0.478 1.279l-0.002-0.002c0.438 0.517 1.103 0.798 1.774 0.798v-2.462z"></path>
<path fill="none" stroke="#06f" style="stroke: var(--color1, #06f)" stroke-linejoin="miter" stroke-linecap="round" stroke-miterlimit="4" stroke-width="2.4615" d="M17.232 13.539h6.154M17.232 17.232h3.693"></path>
</symbol>

<symbol id="icon-igaming" viewBox="0 0 32 32">
<path fill="none" stroke="#06f" style="stroke: var(--color1, #06f)" stroke-linejoin="miter" stroke-linecap="butt" stroke-miterlimit="4" stroke-width="2.4615" d="M9.847 6.154h12.309c2.039 0 3.693 1.653 3.693 3.693v12.309c0 2.039-1.653 3.693-3.693 3.693h-12.309c-2.039 0-3.693-1.653-3.693-3.693v-12.309c0-2.039 1.653-3.693 3.693-3.693z"></path>
<path fill="#06f" style="fill: var(--color1, #06f)" d="M13.539 11.693c0 1.020-0.827 1.846-1.846 1.846s-1.846-0.827-1.846-1.846c0-1.020 0.827-1.846 1.846-1.846s1.846 0.827 1.846 1.846z"></path>
<path fill="#06f" style="fill: var(--color1, #06f)" d="M13.539 20.309c0 1.020-0.827 1.846-1.846 1.846s-1.846-0.827-1.846-1.846c0-1.020 0.827-1.846 1.846-1.846s1.846 0.827 1.846 1.846z"></path>
<path fill="#06f" style="fill: var(--color1, #06f)" d="M22.155 11.693c0 1.020-0.827 1.846-1.846 1.846s-1.846-0.827-1.846-1.846c0-1.020 0.827-1.846 1.846-1.846s1.846 0.827 1.846 1.846z"></path>
<path fill="#06f" style="fill: var(--color1, #06f)" d="M22.155 20.309c0 1.020-0.827 1.846-1.846 1.846s-1.846-0.827-1.846-1.846c0-1.020 0.827-1.846 1.846-1.846s1.846 0.827 1.846 1.846z"></path>
</symbol>
<symbol id="icon-insurance" viewBox="0 0 32 32">
<path fill="none" stroke="#06f" style="stroke: var(--color1, #06f)" stroke-linejoin="miter" stroke-linecap="butt" stroke-miterlimit="4" stroke-width="2.4615" d="M6.154 13.512c0-0 0-0.001 0-0.001 0-0.394 0.185-0.744 0.472-0.97l0.003-0.002 8.616-6.701c0.206-0.162 0.47-0.259 0.756-0.259s0.549 0.098 0.758 0.261l-0.003-0.002 8.616 6.702c0.29 0.227 0.475 0.578 0.475 0.972 0 0 0 0.001 0 0.001v-0 9.873c0 0.68-0.551 1.231-1.231 1.231v0h-17.232c-0.68 0-1.231-0.551-1.231-1.231v0-9.874zM16.001 20.924v-9.847M11.078 16.001h9.847"></path>
</symbol>
<symbol id="icon-marketplace" viewBox="0 0 32 32">
<path fill="#06f" style="fill: var(--color1, #06f)" d="M24.617 8.616h-2.462c0-3.446-2.708-6.154-6.154-6.154s-6.154 2.708-6.154 6.154h-2.462c-1.354 0-2.462 1.108-2.462 2.462v14.77c0 1.354 1.108 2.462 2.462 2.462h17.232c1.354 0 2.462-1.108 2.462-2.462v-14.77c0-1.354-1.108-2.462-2.462-2.462zM16.001 4.923c2.092 0 3.693 1.6 3.693 3.693h-7.385c0-2.092 1.6-3.693 3.693-3.693zM24.617 25.848h-17.232v-14.77h17.232v14.77zM16.001 16.001c-2.092 0-3.693-1.6-3.693-3.693h-2.462c0 3.446 2.708 6.154 6.154 6.154s6.154-2.708 6.154-6.154h-2.462c0 2.092-1.6 3.693-3.693 3.693z"></path>
</symbol>
<symbol id="icon-adult" viewBox="0 0 32 32">
<path fill="none" stroke="#06f" style="stroke: var(--color1, #06f)" stroke-linejoin="round" stroke-linecap="round" stroke-miterlimit="4" stroke-width="2.4615" d="M4.923 13.539l4.923 4.923M9.847 13.539l-4.923 4.923M13.539 13.539l4.923 4.923M18.463 13.539l-4.923 4.923M22.155 13.539l4.923 4.923M27.079 13.539l-4.923 4.923"></path>
</symbol>
<symbol id="icon-healthcare" viewBox="0 0 32 32">
<path fill="none" stroke="#06f" style="stroke: var(--color1, #06f)" stroke-linejoin="round" stroke-linecap="round" stroke-miterlimit="4" stroke-width="2.4615" d="M19.694 7.693c0-0.51-0.413-0.923-0.923-0.923v0h-5.539c-0.51 0-0.923 0.413-0.923 0.923v0 4.616h-4.616c-0.51 0-0.923 0.413-0.923 0.923v0 5.539c0 0.51 0.413 0.923 0.923 0.923v0h4.616v4.616c0 0.51 0.413 0.923 0.923 0.923v0h5.539c0.51 0 0.923-0.413 0.923-0.923v0-4.616h4.616c0.51 0 0.923-0.413 0.923-0.923v0-5.539c0-0.51-0.413-0.923-0.923-0.923v0h-4.616v-4.616z"></path>
</symbol>
<symbol id="icon-crypto-exchange" viewBox="0 0 32 32">
<path fill="none" stroke="#06f" style="stroke: var(--color1, #06f)" stroke-linejoin="miter" stroke-linecap="butt" stroke-miterlimit="4" stroke-width="2.4615" d="M9.847 6.154h12.309c2.039 0 3.693 1.653 3.693 3.693v12.309c0 2.039-1.653 3.693-3.693 3.693h-12.309c-2.039 0-3.693-1.653-3.693-3.693v-12.309c0-2.039 1.653-3.693 3.693-3.693z"></path>
<path fill="none" stroke="#06f" style="stroke: var(--color1, #06f)" stroke-linejoin="round" stroke-linecap="round" stroke-miterlimit="4" stroke-width="2.4615" d="M12.309 11.078h5.034c1.299 0 2.351 1.102 2.351 2.462s-1.052 2.462-2.351 2.462c1.299 0 2.351 1.102 2.351 2.462s-1.052 2.462-2.351 2.462h-5.034M13.539 16.001h4.923M13.539 9.847v1.231M17.232 9.847v1.231M17.232 20.924v1.231"></path>
</symbol>
<symbol id="icon-fintech" viewBox="0 0 32 32">
<path fill="#06f" style="fill: var(--color1, #06f)" d="M24.863 7.385h-17.724c-0.612 0.004-1.164 0.255-1.563 0.658l-0 0c-0.415 0.418-0.649 0.985-0.652 1.575v12.764c0.004 0.591 0.238 1.157 0.652 1.575s0.976 0.655 1.563 0.659h17.724c0.612-0.004 1.164-0.255 1.563-0.658l0-0c0.415-0.419 0.649-0.985 0.652-1.575v-12.764c-0.003-0.615-0.252-1.171-0.653-1.576l0 0c-0.399-0.403-0.951-0.654-1.562-0.659h-0.001zM25.18 9.619v2.132h-0.266c-0.068 0.009-0.147 0.014-0.228 0.014s-0.159-0.005-0.237-0.015l0.009 0.001h-0.165c-0.16-0.033-0.3-0.077-0.433-0.134l0.015 0.006h-0.151c-0.187-0.093-0.346-0.212-0.479-0.356l-0.001-0.001c-0.368-0.366-0.596-0.872-0.596-1.431v-0c0-0.177 0.026-0.353 0.076-0.523h2.139c0 0 0.001 0 0.001 0 0.171 0 0.31 0.136 0.315 0.306v0zM7.139 9.299h2.139c0.049 0.171 0.076 0.347 0.076 0.524-0.002 0.77-0.432 1.439-1.065 1.782l-0.011 0.005h-0.165c-0.123 0.062-0.256 0.105-0.393 0.127h-0.176c-0.068 0.009-0.147 0.014-0.228 0.014s-0.159-0.005-0.237-0.015l0.009 0.001h-0.266v-2.118c0 0 0 0 0-0 0-0.175 0.141-0.318 0.316-0.32h0zM6.823 22.383v-2.132h0.266c0.068-0.009 0.147-0.014 0.228-0.014s0.159 0.005 0.237 0.015l-0.009-0.001h0.165c0.144 0.025 0.284 0.066 0.418 0.128h0.151c0.177 0.092 0.34 0.213 0.48 0.357 0.368 0.366 0.596 0.872 0.596 1.431v0c0 0.177-0.026 0.353-0.076 0.523h-2.139c-0 0-0.001 0-0.001 0-0.171 0-0.31-0.136-0.315-0.306v-0zM11.216 22.703c0.012-0.175 0.012-0.35 0-0.524 0-0.011 0-0.023 0-0.035 0-1.356-0.7-2.548-1.758-3.236l-0.015-0.009-0.215-0.14c-0.122-0.066-0.272-0.134-0.426-0.194l-0.029-0.010-0.254-0.102c-0.19-0.059-0.417-0.108-0.65-0.138l-0.021-0.002c-0.059-0.006-0.127-0.010-0.196-0.010s-0.137 0.004-0.205 0.011l0.008-0.001h-0.633v-4.582h1.076c0.172-0.030 0.341-0.073 0.507-0.128l0.278-0.089c0.193-0.066 0.38-0.153 0.556-0.256l0.203-0.114c0.236-0.156 0.457-0.336 0.659-0.535 0.711-0.696 1.152-1.666 1.152-2.739 0-0.015-0-0.031-0-0.046l0 0.002c0.012-0.175 0.012-0.35 0-0.523h9.571c-0.012 0.174-0.012 0.348 0 0.523-0 0.010-0 0.021-0 0.033 0 1.076 0.441 2.049 1.152 2.748l0.001 0.001c0.197 0.204 0.419 0.384 0.659 0.537l0.202 0.114c0.177 0.103 0.364 0.19 0.558 0.256l0.278 0.089c0.17 0.052 0.345 0.091 0.519 0.116h1.063v4.544h-0.633c-0.059-0.006-0.128-0.010-0.197-0.010s-0.138 0.003-0.205 0.010l0.009-0.001c-0.254 0.032-0.48 0.081-0.699 0.148l0.030-0.008-0.254 0.102c-0.197 0.077-0.359 0.154-0.516 0.24l0.022-0.011-0.215 0.14c-0.226 0.14-0.434 0.308-0.62 0.498-0.711 0.696-1.152 1.665-1.152 2.738 0 0.016 0 0.031 0 0.047l-0-0.002c-0.012 0.175-0.012 0.35 0 0.524l-9.609 0.025zM24.863 22.703h-2.139c-0.048-0.157-0.076-0.337-0.076-0.524v-0c0.002-0.558 0.229-1.063 0.595-1.429v0c0.138-0.148 0.3-0.27 0.481-0.357h0.153c0.117-0.049 0.257-0.093 0.401-0.125l0.017-0.003h0.164c0.068-0.009 0.147-0.014 0.228-0.014s0.159 0.005 0.237 0.015l-0.009-0.001h0.266v2.118c0 0 0 0 0 0 0 0.175-0.141 0.318-0.316 0.32h-0z"></path>
<path fill="#06f" style="fill: var(--color1, #06f)" d="M16.001 11.078c-2.719 0-4.923 2.204-4.923 4.923s2.204 4.923 4.923 4.923v0c2.719 0 4.923-2.204 4.923-4.923s-2.204-4.923-4.923-4.923v0zM16.001 18.815c-1.554 0-2.813-1.259-2.813-2.813s1.259-2.813 2.813-2.813v0c1.553 0 2.813 1.259 2.813 2.813s-1.259 2.813-2.813 2.813v0z"></path>
</symbol>
<symbol id="icon-nft" viewBox="0 0 32 32">
<path fill="#06f" style="fill: var(--color1, #06f)" d="M7.385 27.079c-0.677 0-1.257-0.241-1.739-0.724-0.446-0.431-0.723-1.034-0.723-1.702 0-0.013 0-0.025 0-0.038l-0 0.002v-17.232c0-0.677 0.241-1.257 0.724-1.739 0.431-0.446 1.034-0.723 1.702-0.723 0.013 0 0.025 0 0.038 0l-0.002-0h17.232c0.677 0 1.257 0.241 1.739 0.724s0.724 1.062 0.723 1.738v17.232c0 0.677-0.241 1.257-0.724 1.739-0.431 0.446-1.034 0.723-1.702 0.723-0.013 0-0.025-0-0.038-0l0.002 0h-17.232zM7.385 24.617h17.232v-17.232h-17.232v17.232zM8.616 22.155h14.77l-4.616-6.154-3.693 4.923-2.769-3.693-3.693 4.923z"></path>
</symbol>
<symbol id="icon-real-estate" viewBox="0 0 32 32">
<path fill="#06f" style="fill: var(--color1, #06f)" d="M21.13 19.078h2.051v2.052h-2.051v-2.052zM21.13 14.976h2.051v2.051h-2.051v-2.051zM21.13 10.872h2.051v2.052h-2.051v-2.052zM17.786 10.872l1.292 0.862v-0.862h-1.292z"></path>
<path fill="#06f" style="fill: var(--color1, #06f)" d="M13.95 6.77v1.548l2.051 1.365v-0.862h9.231v14.359h-4.102v2.052h6.154v-18.463h-13.335z"></path>
<path fill="#06f" style="fill: var(--color1, #06f)" d="M12.073 9.539l7.005 4.667v11.026h-14.359v-10.791l7.354-4.902zM13.95 23.181h3.077v-8.041l-4.954-3.149-5.304 3.374v7.816h3.077v-6.154h4.104v6.154z"></path>
</symbol>
<symbol id="icon-ecommerce" viewBox="0 0 32 32">
<path fill="#06f" style="fill: var(--color1, #06f)" d="M24.206 10.872h-4.102v-2.051l-2.051-2.052h-4.104l-2.052 2.052v2.051h-4.102c-1.129 0-2.052 0.923-2.052 2.052v5.129c0 0.769 0.411 1.415 1.027 1.774v3.354c0 0.003-0 0.006-0 0.009 0 1.128 0.915 2.043 2.043 2.043 0.003 0 0.006 0 0.009-0h14.359c0.003 0 0.006 0 0.009 0 1.128 0 2.043-0.915 2.043-2.043 0-0.003 0-0.006-0-0.009v0-3.364c0.604-0.359 1.025-1.015 1.025-1.764v-5.129c0-1.129-0.923-2.052-2.051-2.052zM13.949 8.822h4.102v2.051h-4.102v-2.051zM7.795 12.924h16.412v5.129h-5.129v-3.077h-6.154v3.077h-5.129v-5.129zM17.026 19.078h-2.052v-2.052h2.052v2.052zM23.181 23.181h-14.359v-3.077h4.102v1.027h6.154v-1.027h4.102v3.077z"></path>
</symbol>
<symbol id="icon-mutual-funds" viewBox="0 0 32 32">
<path fill="#06f" style="fill: var(--color1, #06f)" d="M7.588 18.795l3.768-3.768 3.134 3.134 3.498-3.497-1.987-1.987h5.539v5.539l-1.987-1.987-5.064 5.064-3.134-3.133-2.74 2.741c1.611 2.398 4.314 3.955 7.38 3.955 4.894 0 8.862-3.968 8.862-8.862s-3.968-8.862-8.862-8.862c-4.894 0-8.862 3.968-8.862 8.862 0 1.002 0.166 1.966 0.473 2.865l-0.019-0.062v-0.001zM5.883 20.523l-0.011-0.012 0.005-0.004c-0.605-1.325-0.958-2.875-0.958-4.506 0-6.118 4.96-11.078 11.078-11.078 0.001 0 0.003 0 0.004 0h-0c6.118 0 11.078 4.96 11.078 11.078v0c0 6.118-4.96 11.078-11.078 11.078v0c-0.001 0-0.002 0-0.003 0-4.481 0-8.34-2.66-10.085-6.487l-0.028-0.069z"></path>
</symbol>
<symbol id="icon-legal" viewBox="0 0 32 32">
<path fill="#06f" style="fill: var(--color1, #06f)" d="M15.986 4.923c-1.424 0-2.636 0.91-3.086 2.18l-0.007 0.023h-6.776v2.202h2.138l-3.235 7.709c-0.517 2.203 1.095 3.304 3.838 3.304s4.453-1.1 3.839-3.304l-3.237-7.708h3.422c0.363 0.935 1.076 1.652 2.008 2.015v12.041h-9.966v2.462h22.155v-2.462h-9.995v-12.054c0.927-0.353 1.644-1.074 1.986-1.979l0.008-0.023h3.434l-3.236 7.709c-0.516 2.203 1.097 3.304 3.839 3.304 2.741 0 4.453-1.1 3.839-3.304l-3.236-7.709h2.139v-2.203h-6.767c-0.465-1.292-1.678-2.2-3.104-2.203h-0zM15.986 7.127c0 0 0.001 0 0.001 0 0.605 0 1.095 0.49 1.095 1.095 0 0.002 0 0.003 0 0.005v-0c-0.001 0.606-0.49 1.097-1.095 1.102h-0c-0.001 0-0.002 0-0.002 0-0.605 0-1.095-0.49-1.095-1.095 0-0.002 0-0.004 0-0.007v0c0.001-0.606 0.491-1.097 1.096-1.102h0zM8.857 12.908l1.646 4.13h-3.29l1.644-4.13zM23.115 12.908l1.644 4.13h-3.29l1.646-4.13z"></path>
</symbol>
<symbol id="icon-drug-store" viewBox="0 0 32 32">
<path fill="#06f" style="fill: var(--color1, #06f); stroke: var(--color1, #06f)" stroke="#06f" stroke-linejoin="miter" stroke-linecap="butt" stroke-miterlimit="4" stroke-width="0.6154" d="M27.068 20.728l-0.745-0.529c-1.284-0.917-2.853-1.515-4.553-1.65l-0.032-0.002c1.856-1.701 3.176-4 3.616-6.549l0.156-0.91-0.899 0.159c-2.176 0.385-4.168 1.44-5.753 2.934 0.167-2.979-0.613-6.011-2.339-8.502l-0.526-0.756-0.524 0.756c-1.727 2.49-2.507 5.522-2.339 8.502-1.587-1.495-3.578-2.549-5.754-2.934l-0.899-0.159 0.158 0.91c0.439 2.548 1.76 4.847 3.616 6.549-1.732 0.136-3.301 0.734-4.613 1.67l0.028-0.019-0.745 0.53 0.746 0.532c1.457 1.037 3.269 1.664 5.227 1.68l0.004 0c-0.642 0.962-1.053 2.13-1.127 3.387l-0.001 0.019-0.046 0.734 0.725-0.047c1.649-0.103 3.173-0.785 4.29-1.916 0.523-0.53 0.948-1.151 1.264-1.834 0.322 0.708 0.739 1.315 1.245 1.835l-0.002-0.002c1.116 1.132 2.64 1.813 4.29 1.916l0.725 0.047-0.046-0.734c-0.074-1.276-0.485-2.443-1.143-3.431l0.016 0.025c1.962-0.016 3.774-0.643 5.26-1.699l-0.028 0.019 0.746-0.532zM23.874 12.747c-0.718 2.469-2.253 4.507-4.286 5.852l-0.039 0.024c-0.716 0.11-1.357 0.284-1.966 0.52l0.064-0.022c0.394-0.858 0.693-1.756 0.899-2.673 1.329-1.76 3.201-3.093 5.33-3.701zM15.996 7.253c2.145 3.736 2.145 8.537 0 12.273-2.147-3.736-2.147-8.537 0-12.273zM8.119 12.747c2.127 0.608 4 1.942 5.33 3.702 0.204 0.917 0.505 1.814 0.897 2.672-0.615-0.234-1.255-0.4-1.903-0.498-2.072-1.37-3.606-3.408-4.306-5.802l-0.018-0.074zM14.765 20.728c-1.088 0.579-2.379 0.919-3.749 0.919s-2.661-0.34-3.793-0.94l0.044 0.021c1.088-0.579 2.379-0.919 3.75-0.919s2.662 0.34 3.794 0.94l-0.044-0.021zM11.154 25.635c0.22-1.129 0.772-2.104 1.549-2.845l0.002-0.002c0.91-0.166 1.721-0.441 2.475-0.816l-0.053 0.024c-0.549 1.854-2.059 3.253-3.939 3.633l-0.033 0.006zM16.892 22.009c0.761 0.37 1.567 0.63 2.392 0.779 0.781 0.742 1.334 1.717 1.549 2.813l0.005 0.034c-1.903-0.389-3.368-1.79-3.946-3.626zM17.225 20.729c1.088-0.579 2.38-0.919 3.75-0.919s2.662 0.34 3.794 0.941l-0.044-0.021c-1.088 0.579-2.379 0.919-3.75 0.919s-2.662-0.34-3.794-0.94l0.044 0.021z"></path>
</symbol>
<symbol id="icon-ico" viewBox="0 0 32 32">
<path fill="none" stroke="#06f" style="stroke: var(--color1, #06f)" stroke-linejoin="miter" stroke-linecap="butt" stroke-miterlimit="4" stroke-width="2.4615" d="M9.847 6.154h12.309c2.039 0 3.693 1.653 3.693 3.693v12.309c0 2.039-1.653 3.693-3.693 3.693h-12.309c-2.039 0-3.693-1.653-3.693-3.693v-12.309c0-2.039 1.653-3.693 3.693-3.693z"></path>
<path fill="#06f" style="fill: var(--color1, #06f)" d="M15.152 14.695c-1.951 0.457-2.777 0.254-3.225-0.538-0.514-0.907-0.13-1.962 1.114-2.667 1.31-0.743 2.197-0.311 2.831 0.704l1.628-0.923c-0.864-1.403-2.384-2.28-4.163-1.832l-1.034-1.824-2.211 1.253 1.020 1.798c-1.231 1.161-1.784 2.861-0.871 4.468 1.091 1.924 3.040 2.084 5.411 1.477 2.123-0.545 2.907-0.021 3.347 0.753 0.326 0.575 0.485 1.695-1.142 2.618-1.516 0.862-2.548 0.433-3.185-0.505l-1.62 0.919c1.123 1.772 2.911 2.112 4.517 1.653l1.025 1.807 2.209-1.253-1.015-1.791c1.26-1.123 1.867-2.71 0.899-4.418-1.342-2.364-3.588-2.158-5.538-1.701z"></path>
</symbol>
<symbol id="icon-about-us" viewBox="0 0 32 32">
<path fill="#06f" style="fill: var(--color1, #06f)" d="M8.175 17.451c-1.021-1.036-1.652-2.46-1.652-4.031s0.631-2.995 1.653-4.032l-0.001 0.001 1.631-1.649c0.216-0.219 0.515-0.354 0.846-0.354s0.631 0.136 0.846 0.354l0 0c0.217 0.22 0.351 0.522 0.351 0.855s-0.134 0.636-0.351 0.856l0-0-1.631 1.649c-0.588 0.597-0.95 1.416-0.95 2.32s0.363 1.724 0.951 2.321l-0-0c0.585 0.593 1.398 0.96 2.296 0.96s1.711-0.367 2.296-0.96l0-0 1.601-1.617c1.016-1.031 2.428-1.67 3.989-1.67s2.973 0.639 3.989 1.669l0.001 0.001c1.021 1.036 1.652 2.46 1.652 4.031s-0.631 2.995-1.653 4.032l0.001-0.001-1.662 1.68c-0.216 0.219-0.515 0.355-0.847 0.355s-0.631-0.136-0.847-0.355l-0-0c-0.217-0.22-0.351-0.522-0.351-0.855s0.134-0.636 0.351-0.856l-0 0 1.662-1.679c0.588-0.597 0.952-1.417 0.952-2.321s-0.363-1.725-0.952-2.322l0 0c-0.585-0.593-1.397-0.96-2.296-0.96s-1.71 0.367-2.295 0.96l-0 0-1.603 1.619c-1.016 1.031-2.428 1.67-3.989 1.67s-2.973-0.639-3.988-1.669l-0.001-0.001zM26.789 11.705c-0.219 0.258-0.544 0.421-0.907 0.421-0.299 0-0.573-0.111-0.782-0.294l0.001 0.001c-2.153-1.871-7.962-3.188-12.261 2.476-0.219 0.289-0.563 0.474-0.949 0.474-0.276 0-0.53-0.094-0.731-0.252l0.003 0.002c-0.286-0.225-0.469-0.572-0.469-0.96 0-0.278 0.093-0.534 0.249-0.739l-0.002 0.003c5.25-6.917 12.675-5.486 15.72-2.838 0.256 0.225 0.416 0.552 0.416 0.917 0 0.302-0.11 0.578-0.291 0.79l0.001-0.002zM6.9 19.649c-0.207-0.181-0.481-0.292-0.78-0.292-0.362 0-0.687 0.162-0.905 0.418l-0.001 0.002c-0.18 0.211-0.29 0.487-0.29 0.789 0 0.365 0.16 0.692 0.414 0.916l0.001 0.001c3.045 2.648 10.471 4.080 15.72-2.838 0.154-0.202 0.247-0.458 0.247-0.735 0-0.389-0.182-0.735-0.465-0.958l-0.003-0.002c-0.199-0.156-0.453-0.25-0.728-0.25-0.386 0-0.729 0.184-0.946 0.469l-0.002 0.003c-4.299 5.666-10.109 4.349-12.262 2.476z"></path>
</symbol>
<symbol id="icon-book-demo" viewBox="0 0 32 32">
<path fill="#06f" style="fill: var(--color1, #06f); stroke: var(--color1, #06f)" stroke="#06f" stroke-linejoin="miter" stroke-linecap="butt" stroke-miterlimit="4" stroke-width="0.9846" d="M13.633 27.079c-0.359-0.001-0.65-0.293-0.65-0.652 0-0.055 0.007-0.108 0.019-0.158l-0.001 0.005 2.203-8.835h-5.936c-0.359-0.002-0.649-0.293-0.649-0.652 0-0.083 0.015-0.162 0.043-0.235l-0.002 0.004 4.355-11.217c0.098-0.245 0.332-0.414 0.607-0.415h5.994c0.359 0.002 0.649 0.293 0.649 0.652 0 0.093-0.020 0.182-0.055 0.263l0.002-0.004-2.58 5.832h5.102c0.002-0 0.004-0 0.007-0 0.357 0 0.646 0.289 0.646 0.646 0 0.131-0.039 0.254-0.107 0.356l0.002-0.002-9.101 14.115c-0.118 0.18-0.319 0.298-0.548 0.298-0 0-0.001 0-0.001 0h0zM10.219 16.14h5.819c0.36 0.001 0.651 0.293 0.651 0.652 0 0.054-0.007 0.107-0.019 0.157l0.001-0.004-1.452 5.827 6.323-9.809h-4.906c-0.359-0.001-0.65-0.293-0.65-0.652 0-0.093 0.020-0.182 0.055-0.263l-0.002 0.004 2.58-5.831h-4.549l-3.853 9.918z"></path>
</symbol>
<symbol id="icon-blog" viewBox="0 0 32 32">
<path fill="#06f" style="fill: var(--color1, #06f)" d="M27.079 7.385h-22.155v-2.462h22.155v2.462z"></path>
<path fill="none" stroke="#06f" style="stroke: var(--color1, #06f)" stroke-linejoin="miter" stroke-linecap="butt" stroke-miterlimit="4" stroke-width="2.4615" d="M17.232 12.309h9.847M17.232 19.694h9.847"></path>
<path fill="#06f" style="fill: var(--color1, #06f)" d="M27.079 27.079h-22.155v-2.462h22.155v2.462z"></path>
<path fill="none" stroke="#06f" style="stroke: var(--color1, #06f)" stroke-linejoin="miter" stroke-linecap="butt" stroke-miterlimit="4" stroke-width="2.4615" d="M7.385 12.309h4.923c0.68 0 1.231 0.551 1.231 1.231v4.923c0 0.68-0.551 1.231-1.231 1.231h-4.923c-0.68 0-1.231-0.551-1.231-1.231v-4.923c0-0.68 0.551-1.231 1.231-1.231z"></path>
</symbol>
<symbol id="icon-careers" viewBox="0 0 32 32">
<path fill="#06f" style="fill: var(--color1, #06f)" d="M20.792 17.161c1.404 0.954 2.389 2.246 2.389 3.97v3.077h4.104v-3.077c0-2.236-3.662-3.56-6.493-3.97zM19.078 16.001c2.266 0 4.103-1.837 4.103-4.103s-1.837-4.103-4.103-4.103v0c-0.483 0-0.933 0.103-1.364 0.246 0.85 1.044 1.364 2.39 1.364 3.857s-0.515 2.813-1.373 3.868l0.009-0.011c0.431 0.144 0.881 0.246 1.364 0.246zM12.924 16.001c2.266 0 4.103-1.837 4.103-4.103s-1.837-4.103-4.103-4.103v0c-2.266 0-4.103 1.837-4.103 4.103s1.837 4.103 4.103 4.103v0zM12.924 9.847c1.129 0 2.052 0.923 2.052 2.052 0 1.127-0.923 2.051-2.052 2.051-1.127 0-2.051-0.923-2.051-2.051 0-1.129 0.923-2.052 2.051-2.052zM12.924 17.026c-2.739 0-8.206 1.375-8.206 4.104v3.077h16.412v-3.077c0-2.729-5.467-4.104-8.206-4.104zM19.078 22.155h-12.309v-1.015c0.206-0.738 3.385-2.062 6.154-2.062s5.95 1.323 6.154 2.052v1.025z"></path>
</symbol>
<symbol id="icon-api-documentation" viewBox="0 0 32 32">
<path fill="#06f" style="fill: var(--color1, #06f)" d="M25.232 8.822c-1.139-0.359-2.39-0.513-3.589-0.513-2 0-4.154 0.41-5.642 1.539-1.487-1.129-3.641-1.539-5.641-1.539s-4.154 0.41-5.641 1.539v15.026c0 0.257 0.256 0.513 0.512 0.513 0.102 0 0.154-0.052 0.256-0.052 1.385-0.666 3.385-1.127 4.873-1.127 2 0 4.154 0.41 5.641 1.539 1.385-0.873 3.898-1.539 5.642-1.539 1.692 0 3.435 0.308 4.872 1.077 0.102 0.050 0.154 0.050 0.256 0.050 0.275-0.019 0.494-0.237 0.513-0.51l0-0.002v-14.976c-0.615-0.462-1.283-0.769-2.052-1.025zM25.232 22.669c-1.127-0.359-2.358-0.513-3.589-0.513-1.744 0-4.258 0.667-5.642 1.539v-11.795c1.385-0.873 3.898-1.539 5.642-1.539 1.231 0 2.462 0.154 3.589 0.512v11.796z"></path>
<path fill="#06f" style="fill: var(--color1, #06f)" d="M21.643 14.463c0.902 0 1.774 0.092 2.564 0.267v-1.559c-0.811-0.154-1.683-0.246-2.565-0.246-1.743 0-3.323 0.298-4.616 0.852v1.702c1.159-0.656 2.769-1.015 4.616-1.015zM17.028 16.503v1.703c1.158-0.657 2.769-1.015 4.616-1.015 0.902 0 1.774 0.092 2.564 0.266v-1.558c-0.811-0.154-1.683-0.246-2.565-0.246-1.743 0-3.323 0.308-4.616 0.851zM21.643 18.391c-1.744 0-3.323 0.297-4.616 0.851v1.703c1.158-0.657 2.769-1.015 4.616-1.015 0.902 0 1.774 0.092 2.564 0.266v-1.558c-0.811-0.165-1.683-0.246-2.565-0.246z"></path>
</symbol>
<symbol id="icon-global-coverage" viewBox="0 0 32 32">
<path fill="#06f" style="fill: var(--color1, #06f)" d="M15.99 4.718c-6.228 0-11.271 5.055-11.271 11.283s5.043 11.283 11.271 11.283c6.24 0 11.294-5.055 11.294-11.283s-5.055-11.283-11.296-11.283zM23.808 11.488h-3.327c-0.392-1.527-0.925-2.863-1.603-4.109l0.046 0.093c2.091 0.734 3.788 2.149 4.863 3.974l0.023 0.042zM16.001 7.020c0.937 1.354 1.67 2.856 2.155 4.468h-4.31c0.485-1.612 1.219-3.114 2.155-4.468zM7.268 18.257c-0.181-0.676-0.288-1.452-0.293-2.253l-0-0.003c0-0.779 0.112-1.535 0.293-2.256h3.814c-0.091 0.745-0.159 1.489-0.159 2.256s0.068 1.512 0.159 2.256h-3.814zM8.194 20.515h3.327c0.392 1.527 0.925 2.863 1.603 4.109l-0.046-0.093c-2.093-0.73-3.791-2.146-4.863-3.974l-0.023-0.042zM11.521 11.488h-3.327c1.095-1.87 2.793-3.286 4.822-3.997l0.063-0.019c-0.632 1.153-1.165 2.489-1.53 3.894l-0.027 0.123zM16.001 24.983c-0.938-1.354-1.67-2.856-2.156-4.468h4.31c-0.485 1.612-1.219 3.114-2.154 4.468zM18.64 18.257h-5.28c-0.105-0.672-0.169-1.453-0.177-2.247l-0-0.009c0-0.767 0.079-1.524 0.18-2.256h5.28c0.102 0.732 0.181 1.489 0.181 2.256s-0.079 1.512-0.181 2.256zM18.923 24.531c0.677-1.253 1.195-2.607 1.556-4.016h3.328c-1.098 1.867-2.795 3.282-4.822 3.997l-0.063 0.019zM20.92 18.257c0.090-0.745 0.158-1.489 0.158-2.256s-0.068-1.511-0.158-2.256h3.813c0.181 0.721 0.294 1.477 0.294 2.256-0.006 0.804-0.113 1.581-0.309 2.321l0.015-0.065h-3.813z"></path>
</symbol>
<symbol id="icon-contact-us" viewBox="0 0 32 32">
<path fill="#06f" style="fill: var(--color1, #06f)" d="M6.975 6.975h18.052v13.539h-16.731l-1.319 1.319v-14.859zM6.975 4.718c-1.241 0.004-2.245 1.011-2.245 2.252 0 0.002 0 0.003 0 0.005v-0l-0.012 20.309 4.514-4.514h15.797c1.244-0.004 2.252-1.012 2.256-2.256v-13.54c-0.003-1.245-1.012-2.254-2.257-2.257h-18.051zM9.231 16.001h9.027v2.256h-9.027v-2.256zM9.231 12.616h13.539v2.256h-13.539v-2.256zM9.231 9.231h13.539v2.256h-13.539v-2.256z"></path>
</symbol>
<symbol id="icon-arrow_forward" viewBox="0 0 32 32">
<path fill="#06f" style="fill: var(--color1, #06f)" d="M16 5.333l-1.88 1.88 7.44 7.454h-16.227v2.666h16.227l-7.44 7.454 1.88 1.88 10.667-10.667-10.667-10.667z"></path>
</symbol>
<symbol id="icon-arrow-east" viewBox="0 0 34 32">
<path d="M20.897 6.668l-1.88 1.882 6.107 6.121h-21.567v2.668h21.567l-6.121 6.123 1.894 1.88 9.337-9.337-9.337-9.337z"></path>
</symbol>
<symbol id="icon-arrow-east2" viewBox="0 0 34 32">
<path   d="M20.897 6.668l-1.88 1.882 6.107 6.121h-21.567v2.668h21.567l-6.121 6.123 1.894 1.88 9.337-9.337-9.337-9.337z"></path>
</symbol>
<symbol id="icon-apps" viewBox="0 0 34 32">
<path d="M6.224 10.669h5.335v-5.335h-5.335v5.335zM14.227 26.675h5.335v-5.335h-5.335v5.335zM6.224 26.675h5.335v-5.335h-5.335v5.335zM6.224 18.672h5.335v-5.335h-5.335v5.335zM14.227 18.672h5.335v-5.335h-5.335v5.335zM22.23 5.334v5.335h5.335v-5.335h-5.335zM14.227 10.669h5.335v-5.335h-5.335v5.335zM22.23 18.672h5.335v-5.335h-5.335v5.335zM22.23 26.675h5.335v-5.335h-5.335v5.335z"></path>
</symbol>
<symbol id="icon-facebook" viewBox="0 0 30 32">
<path   d="M29.919 27.086c0 2.28-1.848 4.128-4.128 4.128h-21.465c-2.279 0-4.128-1.848-4.128-4.128v-21.465c0-2.28 1.849-4.128 4.128-4.128h21.465c2.28 0 4.128 1.848 4.128 4.128v21.465z"></path>
<path fill="#fff" style="fill: var(--color2, #fff)" d="M19.702 21.262h4.087l0.642-4.047h-4.73v-2.212c0-1.681 0.564-3.172 2.177-3.172h2.593v-3.532c-0.456-0.060-1.419-0.191-3.239-0.191-3.801 0-6.030 1.957-6.030 6.415v2.693h-3.908v4.047h3.908v9.921c1.739 0 2.681 0.033 4.5 0.033v-9.954z"></path>
</symbol>
<symbol id="icon-LinkedIn" viewBox="0 0 30 32">
<path  d="M29.919 27.086c0 2.28-1.848 4.128-4.128 4.128h-21.465c-2.279 0-4.128-1.848-4.128-4.128v-21.465c0-2.28 1.849-4.128 4.128-4.128h21.465c2.28 0 4.128 1.848 4.128 4.128v21.465z"></path>
<path fill="#fff" style="fill: var(--color2, #fff)" d="M5.152 12.225h4.128v14.035h-4.128v-14.035zM7.203 10.574h-0.023c-1.232 0-2.028-0.918-2.028-2.065 0-1.172 0.821-2.063 2.076-2.063 1.256 0 2.029 0.892 2.052 2.063 0 1.146-0.797 2.065-2.076 2.065zM24.966 26.26h-4.128v-7.512c0-1.815-1.011-3.053-2.635-3.053-1.239 0-1.91 0.835-2.235 1.643-0.119 0.289-0.083 1.088-0.083 1.492v7.43h-4.128v-14.035h4.128v2.16c0.595-0.921 1.527-2.16 3.912-2.16 2.954 0 5.169 1.858 5.169 6.005l0.001 8.030z"></path>
</symbol>
<symbol id="icon-Medium" viewBox="0 0 30 32">
<path d="M8.533 8.322c-1.121 0-2.23 0.221-3.266 0.65s-1.976 1.057-2.768 1.85c-0.792 0.792-1.421 1.733-1.85 2.768s-0.65 2.145-0.65 3.266c0 1.121 0.221 2.23 0.65 3.266s1.057 1.976 1.85 2.768c0.792 0.792 1.733 1.421 2.768 1.85s2.145 0.65 3.266 0.65c1.121 0 2.23-0.221 3.266-0.65s1.976-1.058 2.768-1.85c0.792-0.792 1.421-1.733 1.85-2.768s0.65-2.145 0.65-3.266c0-1.121-0.221-2.23-0.65-3.266s-1.057-1.976-1.85-2.768c-0.792-0.792-1.733-1.421-2.768-1.85s-2.145-0.65-3.266-0.65zM22.086 9.326c-0.527 0-1.049 0.195-1.537 0.573s-0.93 0.933-1.303 1.632-0.669 1.529-0.87 2.443c-0.202 0.913-0.306 1.893-0.306 2.881s0.104 1.968 0.306 2.881c0.202 0.913 0.498 1.743 0.87 2.443s0.816 1.254 1.303 1.632c0.487 0.379 1.009 0.573 1.537 0.573s1.050-0.195 1.537-0.573c0.487-0.378 0.93-0.933 1.303-1.632s0.669-1.529 0.871-2.443c0.202-0.914 0.306-1.893 0.306-2.881s-0.104-1.968-0.306-2.881c-0.202-0.914-0.498-1.744-0.871-2.443s-0.815-1.254-1.303-1.632c-0.487-0.378-1.009-0.573-1.537-0.573zM28.612 10.33c-0.399 0-0.782 0.688-1.065 1.911s-0.441 2.884-0.441 4.614c0 1.731 0.159 3.39 0.441 4.614s0.665 1.911 1.065 1.911 0.782-0.687 1.065-1.911c0.282-1.224 0.441-2.883 0.441-4.614s-0.159-3.39-0.441-4.614c-0.282-1.224-0.665-1.911-1.065-1.911z"></path>
</symbol>
<symbol id="icon-document" viewBox="0 0 31 32">
<path fill="#fff" style="fill: var(--color1, #fff); stroke: var(--color2, #000)" stroke="#000" stroke-linejoin="miter" stroke-linecap="butt" stroke-miterlimit="4" stroke-width="1.3617" d="M30.638 16.128c0 8.273-6.706 14.979-14.979 14.979s-14.979-6.706-14.979-14.979c0-8.273 6.706-14.979 14.979-14.979s14.979 6.706 14.979 14.979z"></path>
<path fill="#111" style="fill: var(--color3, #111)" d="M20.681 24.61h-10.043c-2.632 0-4.794-2.135-4.724-4.766 0.215-8.107 1.527-14.808 9.529-14.808 7.97 0 9.605 6.844 9.927 14.809 0.106 2.63-2.058 4.766-4.69 4.766z"></path>
<path fill="#fff" style="fill: var(--color1, #fff); stroke: var(--color3, #111)" stroke="#111" stroke-linejoin="miter" stroke-linecap="butt" stroke-miterlimit="4" stroke-width="1.3617" d="M15.986 26.567c-5.709 0-8.771 0.359-10.199 0.794 2.043 2.043 7.149 3.745 10.199 3.745s6.482-1.362 9.546-3.745c-1.427-0.435-3.837-0.794-9.546-0.794z"></path>
<path fill="#fff" style="fill: var(--color1, #fff)" d="M17.308 23.586c2.918-0.816 5.108-4.231 5.108-8.321 0-4.698-2.889-8.506-6.453-8.506s-6.453 3.808-6.453 8.506c0 3.93 2.021 7.237 4.768 8.213-1.086 0.425-1.835 1.332-1.835 2.383 0 1.458 1.445 2.64 3.226 2.64s3.226-1.182 3.226-2.64c0-0.969-0.638-1.816-1.588-2.275z"></path>
<path fill="#fff" style="fill: var(--color1, #fff); stroke: var(--color3, #111)" stroke="#111" stroke-linejoin="miter" stroke-linecap="butt" stroke-miterlimit="4" stroke-width="1.3617" d="M15.427 24.162c-2.783 0-5.155-1.695-6.064-3.972-0.155-0.388-0.269-0.754-0.347-1.087-0.028-0.118-0.050-0.225-0.066-0.319-0.009-0.054-0.015-0.095-0.019-0.122-0.007-0.039-0.023-0.113-0.028-0.137-0.035-0.174-0.052-0.353-0.052-0.617v-5.030c0-3.736 2.871-6.706 6.575-6.706s6.575 2.97 6.575 6.706v2.474c0 0.181 0.002 0.315 0.010 0.701 0.029 1.39 0 2.108-0.184 2.984-0.072 0.343-0.167 0.672-0.286 0.989-0.968 2.585-3.512 4.136-6.113 4.136z"></path>
<path fill="#111" style="fill: var(--color3, #111)" d="M18.059 24.378c0-0.284 0.228-0.513 0.51-0.513s0.51 0.23 0.51 0.513v1.982l-0.002 0.022c-0.154 1.774-1.625 3.137-3.394 3.145s-3.252-1.343-3.421-3.115l-0.002-0.024v-2.030c0-0.284 0.228-0.513 0.51-0.513s0.51 0.23 0.51 0.513v1.98c0.129 1.232 1.165 2.169 2.399 2.163s2.263-0.952 2.38-2.186v-1.936z"></path>
<path fill="#111" style="fill: var(--color3, #111)" d="M15.386 6.172c5.683 0 6.725 4.736 6.535 7.104h-3.41l-1.137-3.41v3.41h-7.956c-0.379-2.368 0.284-7.104 5.967-7.104z"></path>
<path fill="#111" style="fill: var(--color3, #111)" d="M18.623 16.080c0.383 0 0.693-0.31 0.693-0.692s-0.31-0.692-0.693-0.692-0.693 0.31-0.693 0.692c0 0.382 0.31 0.692 0.693 0.692z"></path>
<path fill="#111" style="fill: var(--color3, #111)" d="M12.385 16.080c0.383 0 0.693-0.31 0.693-0.692s-0.31-0.692-0.693-0.692c-0.383 0-0.693 0.31-0.693 0.692s0.31 0.692 0.693 0.692z"></path>
<path fill="none" stroke="#111" style="stroke: var(--color3, #111)" stroke-linejoin="miter" stroke-linecap="round" stroke-miterlimit="4" stroke-width="1.0213" d="M13.965 19.811v0c0.831 0.665 2.011 0.665 2.841 0v0"></path>
<path fill="none" stroke="#111" style="stroke: var(--color3, #111)" stroke-linejoin="miter" stroke-linecap="round" stroke-miterlimit="4" stroke-width="0.6809" d="M20.21 13.748v0c-0.784-0.719-1.962-0.798-2.835-0.19v0"></path>
<path fill="none" stroke="#111" style="stroke: var(--color3, #111)" stroke-linejoin="miter" stroke-linecap="round" stroke-miterlimit="4" stroke-width="0.6809" d="M13.55 13.543v0c-0.933-0.511-2.095-0.308-2.799 0.49v0"></path>
</symbol>
<symbol id="icon-key" viewBox="0 0 31 32">
<path fill="#fff" style="fill: var(--color1, #fff)" stroke-linejoin="miter" stroke-linecap="butt" stroke-miterlimit="4" stroke-width="1.3617" stroke="#000" d="M30.638 16.128c0 8.273-6.706 14.979-14.979 14.979s-14.979-6.706-14.979-14.979c0-8.273 6.706-14.979 14.979-14.979s14.979 6.706 14.979 14.979z"></path>
<path fill="#000" style="fill: var(--color2, #000)" stroke-linejoin="miter" stroke-linecap="butt" stroke-miterlimit="4" stroke-width="0.6809" stroke="#000" d="M21.38 11.541l-1.131-1.131c-1.454-1.454-3.821-1.454-5.276 0l-0.368 0.368c-1.11 1.102-1.444 2.762-0.786 4.163l-3.853 3.869c-0.703 0.703-1.109 1.678-1.113 2.675-0.002 0.388 0.149 0.753 0.424 1.028 0.274 0.274 0.627 0.424 1.012 0.424 0.612-0.003 1.238-0.155 1.779-0.441 0.48-0.254 0.871-0.684 1.101-1.213 0.022-0.051 0.055-0.099 0.098-0.142 0.077-0.077 0.191-0.12 0.321-0.12 0.403-0 0.799-0.169 1.088-0.462 0.288-0.292 0.453-0.683 0.453-1.073 0-0.151 0.037-0.281 0.095-0.34s0.187-0.093 0.339-0.093c0.401-0 0.8-0.174 1.095-0.475 0.129-0.132 0.245-0.306 0.349-0.52 0.442 0.177 0.904 0.274 1.343 0.277 0.007 0 0.013 0 0.020 0 0.947 0 1.909-0.419 2.641-1.151l0.367-0.368c1.447-1.388 1.447-3.887 0-5.276zM20.628 16.064l-0.367 0.368c-0.538 0.537-1.229 0.843-1.902 0.839-0.439-0.003-0.938-0.15-1.369-0.405-0.141-0.083-0.313-0.097-0.465-0.037s-0.269 0.187-0.315 0.344c-0.136 0.459-0.272 0.622-0.31 0.662-0.091 0.094-0.223 0.154-0.335 0.154-0.442 0-0.829 0.144-1.090 0.405s-0.406 0.649-0.406 1.091c0.003 0.233-0.239 0.479-0.479 0.473-0.413 0.001-0.793 0.153-1.071 0.43-0.139 0.138-0.247 0.297-0.323 0.471-0.134 0.308-0.354 0.555-0.622 0.696-0.39 0.206-0.83 0.316-1.271 0.318-0.101-0-0.198-0.040-0.271-0.113s-0.113-0.169-0.113-0.271c0.003-0.719 0.295-1.421 0.802-1.928l4.128-4.145c0.171-0.172 0.204-0.437 0.081-0.646-0.64-1.054-0.454-2.365 0.429-3.24l0.368-0.368c1.040-1.040 2.731-1.040 3.771 0l1.131 1.131c1.034 0.993 1.034 2.778-0 3.771zM19.361 14.531c-0.136 0-0.272-0.052-0.376-0.156l-1.596-1.596c-0.48-0.517 0.236-1.232 0.752-0.752l1.596 1.596c0.336 0.331 0.089 0.913-0.376 0.908z"></path>
</symbol>
<symbol id="icon-AI" viewBox="0 0 31 32">
<path fill="#fff" style="fill: var(--color1, #fff); stroke: var(--color2, #000)" stroke="#000" stroke-linejoin="miter" stroke-linecap="butt" stroke-miterlimit="4" stroke-width="1.3617" d="M30.638 16.128c0 8.273-6.706 14.979-14.979 14.979s-14.979-6.706-14.979-14.979c0-8.273 6.706-14.979 14.979-14.979s14.979 6.706 14.979 14.979z"></path>
<path fill="#000" style="fill: var(--color2, #000)" d="M21.232 20.933h-2.352v-9.571h2.352v9.571z"></path>
<path fill="#000" style="fill: var(--color2, #000)" d="M8.851 20.933l2.741-9.571h3.52l2.726 9.571h-2.367l-2.030-8.029h-0.172l-2.052 8.029h-2.367zM11.18 18.679v-1.82h4.314v1.82h-4.314z"></path>
</symbol>
<symbol id="icon-close" viewBox="0 0 32 32">
<path fill="#595d62" style="fill: var(--color1, #595d62)" d="M25.341 8.549l-1.881-1.881-7.456 7.455-7.456-7.455-1.881 1.881 7.455 7.456-7.455 7.456 1.881 1.881 7.456-7.456 7.456 7.456 1.881-1.881-7.456-7.456 7.456-7.456z"></path>
</symbol>
<symbol id="icon-arrow-down" viewBox="0 0 31 32">
<path d="M9.489 11.635l5.875 5.862 5.875-5.862 1.805 1.805-7.68 7.68-7.68-7.68 1.805-1.805z"></path>
</symbol>
<symbol id="icon-arrow_forward" viewBox="0 0 32 32">
<path fill="#06f" style="fill: var(--color1, #06f)" d="M16 5.333l-1.88 1.88 7.44 7.454h-16.227v2.666h16.227l-7.44 7.454 1.88 1.88 10.667-10.667-10.667-10.667z"></path>
</symbol>
<symbol id="icon-form-click" viewBox="0 0 40 32">
<path d="M33.784 1.030c0.659-0.637 1.558-1.030 2.548-1.030 2.007 0 3.637 1.611 3.668 3.611l0 0.003c0.001 0.028 0.001 0.061 0.001 0.095 0 0.965-0.368 1.844-0.972 2.504l0.003-0.003-19.576 24.616c-0.674 0.728-1.635 1.182-2.702 1.182-0.495 0-0.967-0.098-1.398-0.275l0.024 0.009c-0.477-0.197-0.884-0.473-1.224-0.816l-0-0-12.984-13.052c-0.724-0.677-1.175-1.638-1.175-2.705 0-0.501 0.1-0.98 0.28-1.416l-0.009 0.025c0.564-1.367 1.887-2.312 3.43-2.312 0.018 0 0.035 0 0.053 0l-0.003-0c1.038 0.019 1.967 0.467 2.622 1.174l0.002 0.002 10.276 10.328 17.040-21.832c0.032-0.039 0.065-0.074 0.1-0.108l-0.004-0z"></path>
</symbol>
<symbol id="icon-cookie" viewBox="0 0 32 32">
<path fill="#06f" style="fill: var(--color1, #06f)" d="M27.386 4.762c-2.971-3.010-6.934-4.7-11.16-4.759-0.451-0.006-0.845 0.312-0.933 0.756-0.338 1.713-1.793 2.995-3.536 3.117-0.28 0.020-0.537 0.164-0.699 0.393s-0.214 0.519-0.14 0.789c0.349 1.28 0.108 2.707-0.66 3.915-0.795 1.25-2.028 2.079-3.382 2.275-0.502 0.073-0.856 0.531-0.797 1.036 0.017 0.15 0.026 0.302 0.026 0.449 0 2.143-1.743 3.886-3.886 3.886-0.332 0-0.663-0.042-0.982-0.125-0.296-0.077-0.61-0.005-0.843 0.193s-0.355 0.497-0.327 0.801c0.364 3.954 2.183 7.616 5.121 10.31 2.956 2.711 6.795 4.205 10.81 4.205 4.274 0 8.292-1.664 11.314-4.686s4.686-7.040 4.686-11.314c0-4.234-1.638-8.225-4.612-11.238zM25.986 25.988c-2.668 2.668-6.215 4.137-9.988 4.137-3.544 0-6.933-1.318-9.543-3.712-2.299-2.109-3.822-4.888-4.362-7.922 0.042 0.001 0.084 0.001 0.126 0.001 3.112 0 5.656-2.481 5.758-5.569 1.558-0.447 2.936-1.489 3.863-2.945 0.856-1.345 1.229-2.902 1.076-4.399 1.855-0.477 3.368-1.858 4.003-3.674 3.459 0.222 6.679 1.688 9.133 4.173 2.625 2.66 4.071 6.183 4.071 9.921-0 3.773-1.469 7.32-4.137 9.988z"></path>
<path fill="#06f" style="fill: var(--color1, #06f)" d="M11.040 16.918c-1.793 0-3.251 1.458-3.251 3.251s1.458 3.251 3.251 3.251 3.251-1.458 3.251-3.251c-0-1.793-1.458-3.251-3.251-3.251zM11.040 21.545c-0.759 0-1.376-0.617-1.376-1.376s0.617-1.376 1.376-1.376c0.759 0 1.376 0.617 1.376 1.376s-0.617 1.376-1.376 1.376z"></path>
<path fill="#06f" style="fill: var(--color1, #06f)" d="M18.861 11.432c1.893 0 3.432-1.54 3.432-3.432s-1.54-3.432-3.432-3.432c-1.892 0-3.432 1.54-3.432 3.432s1.54 3.432 3.432 3.432zM18.861 6.442c0.859 0 1.557 0.699 1.557 1.557s-0.699 1.557-1.557 1.557-1.557-0.699-1.557-1.557c0-0.859 0.699-1.557 1.557-1.557z"></path>
<path fill="#06f" style="fill: var(--color1, #06f)" d="M20.5 19.505c-1.735 0-3.146 1.411-3.146 3.146s1.411 3.145 3.145 3.145c1.734 0 3.145-1.411 3.145-3.145s-1.411-3.145-3.145-3.145zM20.5 23.921c-0.701 0-1.27-0.57-1.27-1.27s0.57-1.27 1.27-1.27c0.701 0 1.27 0.57 1.27 1.27s-0.57 1.27-1.27 1.27z"></path>
<path fill="#06f" style="fill: var(--color1, #06f)" d="M28.045 14.673c0-1.734-1.411-3.146-3.145-3.146s-3.145 1.411-3.145 3.146c0 1.734 1.411 3.145 3.145 3.145s3.145-1.411 3.145-3.146zM24.9 15.944c-0.701 0-1.27-0.57-1.27-1.271s0.57-1.271 1.27-1.271c0.701 0 1.27 0.57 1.27 1.271s-0.57 1.271-1.27 1.271z"></path>
<path fill="#06f" style="fill: var(--color1, #06f)" d="M23.98 8.755c0.080 0.384 0.392 0.685 0.782 0.744 0.387 0.058 0.781-0.141 0.964-0.486s0.132-0.78-0.132-1.071c-0.264-0.29-0.691-0.387-1.053-0.236-0.412 0.171-0.642 0.613-0.561 1.049z"></path>
<path fill="#06f" style="fill: var(--color1, #06f)" d="M27.782 20.259c-0.073-0.384-0.396-0.686-0.781-0.744-0.387-0.058-0.781 0.14-0.965 0.486s-0.131 0.781 0.132 1.071c0.264 0.29 0.691 0.385 1.053 0.236 0.406-0.168 0.65-0.616 0.561-1.049z"></path>
<path fill="#06f" style="fill: var(--color1, #06f)" d="M11.954 13.606c0.072 0.384 0.397 0.686 0.781 0.744 0.388 0.058 0.78-0.141 0.965-0.486s0.13-0.78-0.132-1.071c-0.263-0.292-0.692-0.385-1.053-0.236-0.406 0.168-0.65 0.617-0.561 1.049z"></path>
<path fill="#06f" style="fill: var(--color1, #06f)" d="M15.667 26.49c-0.081-0.385-0.391-0.685-0.781-0.744-0.387-0.059-0.78 0.141-0.964 0.486s-0.132 0.781 0.132 1.071c0.263 0.29 0.692 0.386 1.053 0.236 0.406-0.168 0.65-0.616 0.561-1.049z"></path>
<path fill="#06f" style="fill: var(--color1, #06f)" d="M19.758 13.901c-0.122-0.374-0.454-0.644-0.851-0.664-0.391-0.020-0.762 0.217-0.912 0.578s-0.055 0.791 0.236 1.053c0.292 0.263 0.724 0.316 1.071 0.132 0.392-0.208 0.581-0.675 0.456-1.099z"></path>
<path fill="#06f" style="fill: var(--color1, #06f)" d="M17.446 18.493c0.326-0.215 0.484-0.629 0.389-1.007s-0.427-0.667-0.817-0.704c-0.39-0.038-0.773 0.177-0.939 0.532s-0.093 0.786 0.184 1.064c0.311 0.311 0.817 0.363 1.183 0.116z"></path>
<path fill="#06f" style="fill: var(--color1, #06f)" d="M5.645 20.259c-0.074-0.384-0.396-0.686-0.781-0.744-0.387-0.058-0.781 0.14-0.965 0.486s-0.132 0.781 0.132 1.071 0.691 0.385 1.053 0.236c0.406-0.168 0.651-0.616 0.561-1.049z"></path>
<path fill="#06f" style="fill: var(--color1, #06f)" d="M5.663 6.502c1.793 0 3.251-1.458 3.251-3.251s-1.458-3.251-3.251-3.251-3.251 1.458-3.251 3.251c0 1.793 1.458 3.251 3.251 3.251zM5.663 1.875c0.759 0 1.376 0.617 1.376 1.376s-0.617 1.376-1.376 1.376c-0.759 0-1.376-0.617-1.376-1.376s0.617-1.376 1.376-1.376z"></path>
<path fill="#06f" style="fill: var(--color1, #06f)" d="M0.108 10.576c0.181 0.346 0.58 0.544 0.965 0.486 0.387-0.059 0.704-0.36 0.782-0.744s-0.102-0.787-0.438-0.987c-0.336-0.201-0.772-0.169-1.076 0.079-0.347 0.283-0.433 0.773-0.233 1.166z"></path>
</symbol>
<symbol id="icon-ellipse_mob" viewBox="0 0 31 32">
<path fill="#06f" style="fill: var(--color1, #06f)" d="M31.396 10.228c0 5.335-4.325 9.66-9.66 9.66s-9.66-4.325-9.66-9.66c0-5.335 4.325-9.66 9.66-9.66s9.66 4.325 9.66 9.66z"></path>
</symbol>
<symbol id="icon-arrow-upward" viewBox="0 0 31 32">
<path d="M10.371 10.801v1.823l7.221 0.006-7.868 7.868 1.293 1.293 7.868-7.868-0.006 7.221h1.836v-10.344h-10.344z"></path>
</symbol>
<symbol id="icon-add" viewBox="0 0 31 32">
<path d="M24.32 17.664h-7.68v7.68h-2.56v-7.68h-7.68v-2.56h7.68v-7.68h2.56v7.68h7.68v2.56z"></path>
</symbol>
<symbol id="icon-star" viewBox="0 0 32 32">
<path fill="none" stroke="#06f" style="stroke: var(--color1, #06f)" stroke-linejoin="miter" stroke-linecap="butt" stroke-miterlimit="4" stroke-width="4" d="M15.885 5.744l0.115-0.293 0.115 0.293c1.83 4.639 5.502 8.311 10.141 10.141l0.293 0.115-0.293 0.115c-4.639 1.83-8.311 5.502-10.141 10.141l-0.115 0.293-0.115-0.293c-1.83-4.639-5.502-8.311-10.141-10.141l-0.293-0.115 0.293-0.115c4.639-1.83 8.311-5.502 10.141-10.141z"></path>
</symbol>
<symbol id="icon-location-city" viewBox="0 0 32 32">
<path fill="#06f" style="fill: var(--color1, #06f)" d="M19.787 14.738v-7.574l-3.787-3.787-3.787 3.787v2.525h-7.574v17.673h22.722v-12.623h-7.574zM9.688 24.836h-2.525v-2.525h2.525v2.525zM9.688 19.787h-2.525v-2.525h2.525v2.525zM9.688 14.738h-2.525v-2.525h2.525v2.525zM17.262 24.836h-2.525v-2.525h2.525v2.525zM17.262 19.787h-2.525v-2.525h2.525v2.525zM17.262 14.738h-2.525v-2.525h2.525v2.525zM17.262 9.688h-2.525v-2.525h2.525v2.525zM24.836 24.836h-2.525v-2.525h2.525v2.525zM24.836 19.787h-2.525v-2.525h2.525v2.525z"></path>
</symbol>

<symbol id="icon-bank" viewBox="0 0 32 32">
<path fill="#06f" style="fill: var(--color1, #06f)" d="M31.063 11.875c0.518 0 0.938-0.42 0.938-0.938v-3.75c0-0.379-0.228-0.721-0.578-0.866l-15.063-6.25c-0.23-0.095-0.489-0.095-0.719 0l-15.063 6.25c-0.35 0.145-0.578 0.487-0.578 0.866v3.75c0 0.518 0.42 0.938 0.938 0.938h1.625v10.625h-0.313c-0.518 0-0.938 0.42-0.938 0.938v2.812h-0.375c-0.518 0-0.938 0.42-0.938 0.938v3.875c0 0.518 0.42 0.938 0.938 0.938h30.125c0.518 0 0.938-0.42 0.938-0.938v-3.875c0-0.518-0.42-0.938-0.938-0.938h-0.375v-2.812c0-0.518-0.42-0.938-0.938-0.938h-0.312v-10.625h1.625zM30.125 28.125v2h-28.25v-2h28.25zM7.563 24.375v1.875h-4.375v-1.875h4.375zM4.438 22.5v-10.625h1.875v10.625h-1.875zM8.5 22.5h-0.313v-10.625h15.625v10.625h-0.312c-0.518 0-0.938 0.42-0.938 0.938v2.812h-13.125v-2.812c0-0.518-0.42-0.938-0.938-0.938zM28.812 24.375v1.875h-4.375v-1.875h4.375zM25.688 22.5v-10.625h1.875v10.625h-1.875zM1.875 10v-2.187l14.125-5.861 14.125 5.861v2.187h-28.25z"></path>
<path fill="#06f" style="fill: var(--color1, #06f)" d="M21.625 6.25h-11.25c-0.518 0-0.938 0.42-0.938 0.938s0.42 0.938 0.938 0.938h11.25c0.518 0 0.938-0.42 0.938-0.938s-0.42-0.938-0.938-0.938z"></path>
<path fill="#06f" style="fill: var(--color1, #06f)" d="M16 21.875c-0.517 0-0.938-0.421-0.938-0.938s-0.42-0.938-0.938-0.938c-0.518 0-0.938 0.42-0.938 0.938 0 1.222 0.784 2.264 1.875 2.651v0.474c0 0.518 0.42 0.938 0.938 0.938s0.938-0.42 0.938-0.938v-0.474c1.091-0.387 1.875-1.429 1.875-2.651 0-1.551-1.262-2.812-2.812-2.812-0.517 0-0.938-0.421-0.938-0.938s0.421-0.938 0.938-0.938 0.938 0.42 0.938 0.938c0 0.518 0.42 0.938 0.938 0.938s0.938-0.42 0.938-0.938c0-1.222-0.784-2.264-1.875-2.651v-0.474c0-0.518-0.42-0.938-0.938-0.938s-0.938 0.42-0.938 0.938v0.474c-1.091 0.387-1.875 1.429-1.875 2.651 0 1.551 1.262 2.812 2.812 2.812 0.517 0 0.938 0.421 0.938 0.938s-0.421 0.938-0.938 0.938z"></path>
</symbol>
<symbol id="icon-judgment" viewBox="0 0 32 32">
<path fill="#06f" style="fill: var(--color1, #06f)" d="M31.726 24.335l-11.402-11.402 1.335-1.335c0.831 0.246 1.771 0.009 2.379-0.612l1.608-1.608c0.366-0.366 0.366-0.96 0-1.326l-7.778-7.778c-0.366-0.366-0.96-0.366-1.326 0l-1.608 1.608c-0.643 0.643-0.846 1.561-0.611 2.378l-6.648 6.648c-0.216-0.062-0.442-0.095-0.673-0.095-0.645 0-1.251 0.251-1.707 0.707l-1.608 1.608c-0.363 0.349-0.363 0.977 0 1.326l7.778 7.778c0.366 0.366 0.96 0.366 1.326 0l1.608-1.608c0.456-0.456 0.707-1.062 0.707-1.706 0-0.231-0.033-0.457-0.095-0.673l1.335-1.335 11.402 11.402c0.349 0.363 0.977 0.363 1.326 0l2.652-2.652c0.366-0.366 0.366-0.96 0-1.326zM13.896 16.709l-4.685-4.685 6.225-6.225 4.685 4.685-6.225 6.225zM16.259 3.208l0.945-0.945 6.452 6.452-0.945 0.945c-0.2 0.209-0.561 0.209-0.761 0l-5.691-5.691c-0.21-0.21-0.21-0.551 0-0.761zM13.074 19.299l-0.945 0.945-6.452-6.452 0.945-0.945c0.21-0.21 0.551-0.21 0.761 0l5.691 5.691c0.209 0.2 0.209 0.561 0 0.762zM28.411 26.324l-10.739-10.739 1.326-1.326 10.739 10.739-1.326 1.326z"></path>
<path fill="#06f" style="fill: var(--color1, #06f)" d="M23.625 30.125h-1.75v-0.553c0-1.763-1.434-3.197-3.197-3.197h-12.793c-1.763 0-3.197 1.434-3.197 3.197v0.553h-1.75c-0.518 0-0.938 0.42-0.938 0.938s0.42 0.938 0.938 0.938h22.688c0.518 0 0.938-0.42 0.938-0.938s-0.42-0.938-0.938-0.938zM4.563 30.125v-0.553c0-0.729 0.593-1.322 1.322-1.322h12.793c0.729 0 1.322 0.593 1.322 1.322v0.553h-15.438z"></path>
</symbol>
<symbol id="icon-legal-document" viewBox="0 0 32 32">
<path fill="#06f" style="fill: var(--color1, #06f)" d="M12.579 13.366h-7.236c-0.518 0-0.938 0.42-0.938 0.938s0.42 0.938 0.938 0.938h7.236c0.518 0 0.938-0.42 0.938-0.938s-0.42-0.938-0.938-0.938z"></path>
<path fill="#06f" style="fill: var(--color1, #06f)" d="M12.579 9.616h-7.236c-0.518 0-0.938 0.42-0.938 0.938s0.42 0.938 0.938 0.938h7.236c0.518 0 0.938-0.42 0.938-0.938s-0.42-0.938-0.938-0.938z"></path>
<path fill="#06f" style="fill: var(--color1, #06f)" d="M5.343 7.74h13.981c0.518 0 0.938-0.42 0.938-0.938s-0.42-0.938-0.938-0.938h-13.981c-0.518 0-0.938 0.42-0.938 0.938s0.42 0.938 0.938 0.938z"></path>
<path fill="#06f" style="fill: var(--color1, #06f)" d="M12.579 17.091h-7.236c-0.518 0-0.938 0.42-0.938 0.938s0.42 0.938 0.938 0.938h7.236c0.518 0 0.938-0.42 0.938-0.938s-0.42-0.938-0.938-0.938z"></path>
<path fill="#06f" style="fill: var(--color1, #06f)" d="M12.579 20.216h-7.236c-0.518 0-0.938 0.42-0.938 0.938s0.42 0.938 0.938 0.938h7.236c0.518 0 0.938-0.42 0.938-0.938s-0.42-0.938-0.938-0.938z"></path>
<path fill="#06f" style="fill: var(--color1, #06f)" d="M12.579 23.966h-7.236c-0.518 0-0.938 0.42-0.938 0.938s0.42 0.938 0.938 0.938h7.236c0.518 0 0.938-0.42 0.938-0.938s-0.42-0.938-0.938-0.938z"></path>
<path fill="#06f" style="fill: var(--color1, #06f)" d="M31.967 16.483c-0.004-0.515-0.423-0.93-0.938-0.93-0.009 0-0.019 0-0.029 0-1.147 0-2.201-0.658-2.688-1.68-0.156-0.326-0.485-0.534-0.846-0.534-0.002 0-0.005 0-0.007 0l-2.733 0.020v-11.796c0-0.862-0.701-1.563-1.563-1.563h-21.601c-0.862 0-1.563 0.701-1.563 1.563v28.875c0 0.861 0.701 1.563 1.563 1.563h22.28c0.020 0 0.086-0.005 0.094-0.006 0.132-0.014 0.262-0.055 0.38-0.125l2.129-1.26c1.703-1.008 3.117-2.444 4.090-4.154 0.973-1.711 1.48-3.653 1.465-5.616l-0.033-4.356zM1.875 1.875h20.976v11.498l-2.901 0.021c-0.364 0.003-0.694 0.216-0.845 0.547-0.475 1.036-1.528 1.711-2.684 1.72-0.249 0.002-0.486 0.102-0.661 0.28s-0.272 0.416-0.27 0.665l0.033 4.356c0.015 1.963 0.551 3.897 1.55 5.593 0.834 1.415 1.973 2.634 3.326 3.57l-18.524-0v-28.25zM25.49 28.996l-1.659 0.982-1.674-0.958c-2.91-1.665-4.733-4.758-4.758-8.073l-0.027-3.51c1.297-0.265 2.442-1.052 3.145-2.172l6.404-0.047c0.72 1.111 1.876 1.88 3.178 2.126l0.026 3.51c0.025 3.315-1.751 6.435-4.635 8.142z"></path>
<path fill="#06f" style="fill: var(--color1, #06f)" d="M25.825 19.925l-2.658 2.826-0.932-1.145c-0.327-0.402-0.918-0.462-1.319-0.135s-0.462 0.917-0.135 1.319l1.608 1.975c0.171 0.21 0.423 0.335 0.694 0.345 0.011 0 0.022 0.001 0.034 0.001 0.258 0 0.505-0.107 0.683-0.295l3.392-3.607c0.355-0.377 0.337-0.971-0.041-1.325s-0.971-0.337-1.325 0.041z"></path>

<symbol id="icon-arrow-back"  width="24" height="25" viewBox="0 0 24 25" >
<path d="M12 4.97046L13.41 6.38046L7.83 11.9705L20 11.9705L20 13.9705L7.83 13.9705L13.42 19.5505L12 20.9705L4 12.9705L12 4.97046Z" />
</symbol>
<symbol id="icon-arrow-forward"  width="24" height="25" viewBox="0 0 24 25" >
<path d="M12 4.97046L10.59 6.38046L16.17 11.9705L4 11.9705L4 13.9705L16.17 13.9705L10.58 19.5505L12 20.9705L20 12.9705L12 4.97046Z" />
</symbol>
<symbol id="icon-stars" viewBox="0 0 45 32">
<path fill="none" stroke="#06f" style="stroke: var(--color1, #06f)" stroke-linejoin="miter" stroke-linecap="butt" stroke-miterlimit="4" stroke-width="1.1429" d="M11.095 8.198l2.619-6.64 2.619 6.64c0.523 1.325 1.572 2.375 2.897 2.897l6.64 2.619-6.64 2.619c-1.326 0.523-2.375 1.572-2.897 2.897l-2.619 6.64-2.619-6.64c-0.523-1.326-1.572-2.375-2.897-2.897l-6.64-2.619 6.64-2.619c1.325-0.523 2.375-1.572 2.897-2.897z"></path>
<path fill="none" stroke="#06f" style="stroke: var(--color1, #06f)" stroke-linejoin="miter" stroke-linecap="butt" stroke-miterlimit="4" stroke-width="1.1429" d="M34.103 18.634l1.326-3.362 1.326 3.362c0.523 1.325 1.572 2.375 2.897 2.897l3.362 1.326-3.362 1.326c-1.325 0.523-2.375 1.572-2.897 2.897l-1.326 3.362-1.326-3.362c-0.523-1.325-1.572-2.375-2.897-2.897l-3.362-1.326 3.362-1.326c1.325-0.523 2.375-1.572 2.897-2.897z"></path>
</symbol>
<symbol id="iconStars" viewBox="0 0 45 32">
<path fill="none" stroke="#06f" style="stroke: var(--color1, #06f)" stroke-linejoin="miter" stroke-linecap="butt" stroke-miterlimit="4" stroke-width="1.1429" d="M11.095 8.198l2.619-6.64 2.619 6.64c0.523 1.325 1.572 2.375 2.897 2.897l6.64 2.619-6.64 2.619c-1.326 0.523-2.375 1.572-2.897 2.897l-2.619 6.64-2.619-6.64c-0.523-1.326-1.572-2.375-2.897-2.897l-6.64-2.619 6.64-2.619c1.325-0.523 2.375-1.572 2.897-2.897z"></path>
<path fill="none" stroke="#06f" style="stroke: var(--color1, #06f)" stroke-linejoin="miter" stroke-linecap="butt" stroke-miterlimit="4" stroke-width="1.1429" d="M34.103 18.634l1.326-3.362 1.326 3.362c0.523 1.325 1.572 2.375 2.897 2.897l3.362 1.326-3.362 1.326c-1.325 0.523-2.375 1.572-2.897 2.897l-1.326 3.362-1.326-3.362c-0.523-1.325-1.572-2.375-2.897-2.897l-3.362-1.326 3.362-1.326c1.325-0.523 2.375-1.572 2.897-2.897z"></path>
</symbol>
</defs>
</svg>
